{
  "persons": [
    {
      "firstname": "Рикки",
      "lastname": "бренд Рокко",
      "phone": "8(467) 947-64-97",
      "id": 1
    },
    {
      "firstname": "Cat",
      "lastname": "Smetana",
      "phone": "8(385) 793-75-93",
      "id": 2
    },
    {
      "firstname": "Ivan",
      "lastname": "Ivanov",
      "phone": "8(487) 694-76-94",
      "id": 3
    },
    {
      "firstname": "PI",
      "lastname": "Math",
      "phone": "8(464) 076-04-86",
      "id": 4
    },
    {
      "firstname": "Tomatos",
      "lastname": "Ketchos",
      "phone": "8(938) 038-50-34",
      "id": 5
    },
    {
      "firstname": "jfldjk",
      "lastname": "dgdg",
      "phone": "8(452) 542-42-42",
      "id": 6
    },
    {
      "firstname": "dfhlsf",
      "lastname": "ksjflsjf666666",
      "phone": "8(726) 424-92-42",
      "id": 7
    },
    {
      "firstname": "dad",
      "lastname": "ada",
      "phone": "8(242) 424-24-24",
      "id": 8
    }
  ],
  "profile": {
    "name": "typicode"
  }
}